00000000
00000000
00000000
00000000
00000000
00000000
00000000
00000001
00000001
00000000
00000000
00000001
00000010
00000010
00000001
00000001
00000011
00000100
00000100
00000010
00000010
00000111
00001010
00001010
00000100
00000101
00001111
00010110
00010100
00001001
00001010
00011110
00101010
00100110
00010000
00010010
00110101
01001001
01000001
00011011
00011110
01010101
01110011
01100100
00101001
00101100
01111100
10100011
10001011
00111000
00111011
10100010
11010001
10101111
01000101
01000111
11000000
11110011
11001000
01001101
01001110
11001110
11111111
11001110
01001110
01001101
11001000
11110011
11000000
01000111
01000101
10101111
11010001
10100010
00111011
00111000
10001011
10100011
01111100
00101100
00101001
01100100
01110011
01010101
00011110
00011011
01000001
01001001
00110101
00010010
00010000
00100110
00101010
00011110
00001010
00001001
00010100
00010110
00001111
00000101
00000100
00001010
00001010
00000111
00000010
00000010
00000100
00000100
00000011
00000001
00000001
00000010
00000010
00000001
00000000
00000000
00000001
00000001
00000000
00000000
00000000
00000000
00000000
00000000
00000000
00000000
00000000
00000000
00000000
00000000
00000000
00000000
00000000
00000000
00000000
00000000
00000000
00000000
00000000
00000000
00000000
00000000
00000000
00000000
00000000
00000000
00000000
00000000
00000000
00000000
00000000
00000000
00000000
00000000
00000000
00000000
00000000
00000000
00000000
00000000
00000000
00000000
00000000
00000000
00000000
00000000
00000000
00000000
00000000
00000000
00000000
00000000
00000000
00000000
00000000
00000000
00000001
00000001
00000010
00000001
00000001
00000011
00000101
00000101
00000011
00000011
00001010
00010000
00001111
00000111
00001001
00011011
00100111
00100101
00010000
00010011
00111000
01001110
01000111
00011110
00100001
01011111
10000000
01110000
00101110
00110001
10000110
10101101
10010001
00111001
00111010
10011010
10111111
10011010
00111010
00111001
10010001
10101101
10000110
00110001
00101110
01110000
10000000
01011111
00100001
00011110
01000111
01001110
00111000
00010011
00010000
00100101
00100111
00011011
00001001
00000111
00001111
00010000
00001010
00000011
00000011
00000101
00000101
00000011
00000001
00000001
00000010
00000001
00000001
00000000
00000000
00000000
00000000
00000000
00000000
00000000
00000000
00000000
00000000
00000000
00000000
00000000
00000000
00000000
00000000
00000000
00000000
00000000
00000000
00000000
00000000
00000000
00000000
00000000
00000000
00000000
00000000
00000000
00000000
00000000
00000000
00000000
00000000
00000000
00000000
00000000
00000000
00000000
00000000
00000000
00000000
00000000
00000000
00000000
00000000
00000000
00000000
00000000
00000000
00000000
00000000
00000000
00000000
00000000
00000000
00000000
00000000
00000000
00000000
00000000
00000000
00000000
00000000
00000000
00000000
00000000
00000000
00000000
00000000
00000000
00000000
00000000
00000000
00000000
00000000
00000000
00000000
00000000
00000000
00000000
00000000
00000000
00000001
00000001
00000000
00000001
00000010
00000011
00000100
00000010
00000010
00001000
00001101
00001101
00000110
00001000
00011001
00100101
00100100
00010000
00010011
00111000
01001111
01000111
00011110
00100001
01011110
01111011
01101001
00101010
00101011
01110011
10001111
01110011
00101011
00101010
01101001
01111011
01011110
00100001
00011110
01000111
01001111
00111000
00010011
00010000
00100100
00100101
00011001
00001000
00000110
00001101
00001101
00001000
00000010
00000010
00000100
00000011
00000010
00000001
00000000
00000001
00000001
00000000
00000000
00000000
00000000
00000000
00000000
00000000
00000000
00000000
00000000
00000000
00000000
00000000
00000000
00000000
00000000
00000000
00000000
00000000
00000000
00000000
00000000
00000000
00000000
00000000
00000000
00000000
00000000
00000000
00000000
00000000
00000000
00000000
00000000
00000000
00000000
00000000
00000000
00000000
00000000
00000000
00000000
00000000
00000000
00000000
00000000
00000000
00000000
00000000
00000000
00000000
00000000
00000000
00000000
00000000
00000000
00000000
00000000
00000000
00000000
00000000
00000000
00000000
00000000
00000000
00000000
00000000
00000000
00000000
00000000
00000000
00000000
00000000
00000000
00000000
00000000
00000000
00000000
00000000
00000000
00000000
00000000
00000000
00000000
00000000
00000000
00000000
00000000
00000000
00000000
00000000
00000000
00000000
00000000
00000001
00000001
00000000
00000001
00000011
00000100
00000101
00000010
00000011
00001011
00010010
00010010
00001001
00001011
00100001
00110000
00101110
00010100
00010110
01000001
01011000
01001101
00011111
00100000
01010110
01101100
01010110
00100000
00011111
01001101
01011000
01000001
00010110
00010100
00101110
00110000
00100001
00001011
00001001
00010010
00010010
00001011
00000011
00000010
00000101
00000100
00000011
00000001
00000000
00000001
00000001
00000000
00000000
00000000
00000000
00000000
00000000
00000000
00000000
00000000
00000000
00000000
00000000
00000000
00000000
00000000
00000000
00000000
00000000
00000000
00000000
00000000
00000000
00000000
00000000
00000000
00000000
00000000
00000000
00000000
00000000
00000000
00000000
00000000
00000000
00000000
00000000
00000000
00000000
00000000
00000000
00000000
00000000
00000000
00000000
00000000
00000000
00000000
00000000
00000000
00000000
00000000
00000000
00000000
00000000
00000000
00000000
00000000
00000000
00000000
00000000
00000000
00000000
00000000
00000000
00000000
00000000
00000000
00000000
00000000
00000000
00000000
00000000
00000000
00000000
00000000
00000000
00000000
00000000
00000000
00000000
00000000
00000000
00000000
00000000
00000000
00000000
00000000
00000000
00000000
00000000
00000000
00000000
00000000
00000000
00000000
00000000
00000000
00000000
00000000
00000000
00000000
00000000
00000000
00000001
00000001
00000010
00000001
00000001
00000101
00001001
00001001
00000101
00000110
00010011
00011110
00011101
00001101
00001111
00101110
00111111
00111000
00010111
00011000
01000001
01010001
01000001
00011000
00010111
00111000
00111111
00101110
00001111
00001101
00011101
00011110
00010011
00000110
00000101
00001001
00001001
00000101
00000001
00000001
00000010
00000001
00000001
00000000
00000000
00000000
00000000
00000000
00000000
00000000
00000000
00000000
00000000
00000000
00000000
00000000
00000000
00000000
00000000
00000000
00000000
00000000
00000000
00000000
00000000
00000000
00000000
00000000
00000000
00000000
00000000
00000000
00000000
00000000
00000000
00000000
00000000
00000000
00000000
00000000
00000000
00000000
00000000
00000000
00000000
00000000
00000000
00000000
00000000
00000000
00000000
00000000
00000000
00000000
00000000
00000000
00000000
00000000
00000000
00000000
00000000
00000000
00000000
00000000
00000000
00000000
00000000
00000000
00000000
00000000
00000000
00000000
00000000
00000000
00000000
00000000
00000000
00000000
00000000
00000000
00000000
00000000
00000000
00000000
00000000
00000000
00000000
00000000
00000000
00000000
00000000
00000000
00000000
00000000
00000000
00000000
00000000
00000000
00000000
00000000
00000000
00000000
00000000
00000000
00000000
00000000
00000000
00000000
00000000
00000000
00000000
00000000
00000001
00000000
00000001
00000010
00000100
00000101
00000010
00000011
00001011
00010010
00010011
00001001
00001010
00100000
00101101
00101000
00010001
00010010
00110000
00111101
00110000
00010010
00010001
00101000
00101101
00100000
00001010
00001001
00010011
00010010
00001011
00000011
00000010
00000101
00000100
00000010
00000001
00000000
00000001
00000000
00000000
00000000
00000000
00000000
00000000
00000000
00000000
00000000
00000000
00000000
00000000
00000000
00000000
00000000
00000000
00000000
00000000
00000000
00000000
00000000
00000000
00000000
00000000
00000000
00000000
00000000
00000000
00000000
00000000
00000000
00000000
00000000
00000000
00000000
00000000
00000000
00000000
00000000
00000000
00000000
00000000
00000000
00000000
00000000
00000000
00000000
00000000
00000000
00000000
00000000
00000000
00000000
00000000
00000000
00000000
00000000
00000000
00000000
00000000
00000000
00000000
00000000
00000000
00000000
00000000
00000000
00000000
00000000
00000000
00000000
00000000
00000000
00000000
00000000
00000000
00000000
00000000
00000000
00000000
00000000
00000000
00000000
00000000
00000000
00000000
00000000
00000000
00000000
00000000
00000000
00000000
00000000
00000000
00000000
00000000
00000000
00000000
00000000
00000000
00000000
00000000
00000000
00000000
00000000
00000000
00000000
00000000
00000000
00000000
00000000
00000000
00000000
00000000
00000001
00000010
00000010
00000001
00000010
00000111
00001011
00001100
00000110
00000111
00010110
00100000
00011101
00001100
00001101
00100100
00101101
00100100
00001101
00001100
00011101
00100000
00010110
00000111
00000110
00001100
00001011
00000111
00000010
00000001
00000010
00000010
00000001
00000000
00000000
00000000
00000000
00000000
00000000
00000000
00000000
00000000
00000000
00000000
00000000
00000000
00000000
00000000
00000000
00000000
00000000
00000000
00000000
00000000
00000000
00000000
00000000
00000000
00000000
00000000
00000000
00000000
00000000
00000000
00000000
00000000
00000000
00000000
00000000
00000000
00000000
00000000
00000000
00000000
00000000
00000000
00000000
00000000
